<svg width="188" height="127" viewBox="0 0 188 127" fill="none" xmlns="http://www.w3.org/2000/svg">
    <path d="M15.146 45.8819L18.5039 46.0857L20.274 49.7976L23.3851 48.4137L27.3544 47.8022L27.5047 51.1064H34.1881L36.3016 52.2436L38.6081 52.5332L39.9383 51.7715L44.3475 53.3378L44.1115 46.1608L48.746 46.0321L49.969 47.5555L52.9406 48.757L55.1398 50.7738L55.7084 51.0957L56.9207 49.8941L56.3843 49.1432L57.0172 48.0382L57.8433 48.6712L60.4502 45.8283L60.2142 44.8091L58.9375 44.2942L58.4762 41.9555L61.5122 42.0198L62.3276 40.2068L63.218 39.6919L65.5138 40.003L66.0394 38.308L66.6187 38.2114L67.0157 36.216L68.5069 35.3149L69.3758 35.229L69.7298 33.9524L70.4486 34.0061L71.3712 33.062L71.9398 33.2551L73.7206 32.3647L71.9505 30.3478L73.0984 30.5838L72.1114 27.1616L75.3191 24.2007L74.0961 22.5057L74.8363 22.2697L74.9115 20.8107L74.5467 19.6199L73.0984 19.5019L73.3666 17.0344L71.0387 16.8521L70.3843 15.4896L69.2364 15.1034L69.1398 13.9233L67.6379 11.7456L68.2709 10.7693L69.1505 10.6835L69.7513 10.4367L69.7942 9.55706L70.8563 8.75246L71.4034 9.38542L72.0471 8.10879L71.0279 8.17316L70.9635 6.40305L74.0318 6.48887L74.5038 5.93102L73.9459 5.29807L74.1176 4.71876L73.431 3.63524L75.0402 3.75324L75.2225 2.88428L77.2716 3.03447L77.3681 4.08581L80.3076 3.87125L80.2432 2.07968L82.2923 2.2406L82.3567 3.73179L83.6655 3.98926L83.9122 4.8904L84.7811 5.11569L85.1566 6.32795L85.2103 7.9586L86.6478 8.36626L87.3237 6.79998L86.1651 6.55324L85.8111 4.90113L86.6907 4.81531L87.0769 3.06666L88.2355 3.3134L88.729 2.3157L89.7482 2.25133L90.5313 1.41455L95.0585 1.48965L95.2624 3.14175L96.4102 3.53868L96.6462 7.11109L96.142 8.24826L96.8501 8.60227L97.3221 7.90496L99.9076 8.55936L101.399 7.94787L101.581 9.8789L100.68 10.3938L100.916 11.3057L100.036 11.3808L100.122 12.4107L99.4999 12.9578L103.577 12.8505L103.898 12.2927L104.628 12.3463L104.735 12.9471L106.859 15.6291L107.17 17.2812L109.198 17.013L108.812 14.4812L110.7 14.2023L111.204 11.295L120.012 11.0483L119.926 12.0781L120.205 12.0996L119.894 14.1379L123.262 14.7387L123.488 15.3609L125.333 15.3823L126.116 14.567L126.695 14.4705L127.189 13.7839L128.487 13.6015L129.184 12.1961L131.308 12.2498L131.18 13.5693L135.503 18.2682L134.666 19.5233L133.99 21.9693L134.655 23.8038L133.325 24.4045L133.347 25.5846L134.355 26.7218L134.634 28.0735L140.717 28.8352L145.652 28.4597L146.628 25.9065L150.651 25.016L151.541 25.8528L153.483 24.8873L155.736 24.8658L156.412 23.9003L157.12 23.836L157.56 24.9409L157.57 27.4835L158.45 28.4812L159.029 34.6497L161.701 33.5126L165.691 35.5401L168.523 35.4758L168.781 36.849L170.337 36.7739L171.828 39.6382L179.895 40.239L179.96 40.8398L181.054 41.0007L181.536 62.4137L181.976 63.347L180.7 63.5937L177.771 65.9002L177.117 66.6727L177.009 72.9914L180.828 71.114L181.891 73.5707L184.347 73.796L186.386 74.9654L185.871 75.7485L184.755 75.8665L183.94 76.8857L181.815 76.2849L177.17 79.3209L176.859 81.7025L174.606 84.363L171.034 83.301L169.682 85.3822L169.081 83.6013L168.513 83.8052L168.845 84.4167L167.14 84.8994L166.571 83.9661L165.563 84.3952L165.219 86.0581L166.131 86.4657L167.419 89.3301L167.204 90.0059L167.955 90.5316L169.071 88.1393L170.143 88.2895L172.858 89.5125L169.757 92.4734L164.222 94.2649L164.962 96.0565L163.803 96.6036L162.012 96.786L161.164 98.2235L157.796 96.7967L156.573 99.0281L155.747 99.2105L155.543 99.7469L156.143 100.38L154.738 102.021L151.724 102.204L151.595 103.309L150.833 102.933L149.771 103.92L150.361 104.692L148.848 106.033L151.112 107.568L149.385 108.469L146.993 106.924L146.166 108.211L144.622 108.726L145.083 111.837L143.688 112.224L143.978 113.232L141.371 111.247L136.994 111.709L136.479 112.76L135.181 112.331L137.091 109.638L136.715 108.072L137.348 107.171L137.155 106.452L136.522 106.098L137.949 104.178L135.589 102.086L134.087 102.193L133.808 101.045L132.392 101.581L132.091 100.573L131.126 100.745L131.169 101.581L128.047 102.912L127.457 106.044L125.966 106.023L125.29 107.342L123.423 107.138L121.793 108.49L122.232 109.499L119.475 111.43L117.995 111.408L117.673 111.923L116.3 112.202L116.032 119.068L114.53 116.44L110.035 118.456L111.333 121.75L110.668 123.059L108.361 123.37L105.368 125.279L103.684 126.073L102.396 125.408L102.482 123.08L104.338 120.377L103.898 119.379L102.922 119.701L102.289 117.856L95.7988 119.733L94.8654 119.647L94.1574 120.001L93.2348 119.776L92.0011 120.076L92.5053 117.384L91.293 117.276L90.6815 116.536L89.8984 114.669L89.3513 114.766L88.7183 115.807L88.3321 113.983L85.4999 115.528L86.2402 117.931L84.5237 119.014L83.5904 118.939L82.9789 118.199L82.7643 119.143L83.3758 119.883L83.1183 121.364L82.5712 121.45L81.6808 120.699L78.9988 122.115L76.2953 120.387L75.0831 120.291L74.7398 119.443L73.0662 119.991L72.3475 118.703L73.8387 117.04L74.7076 112.985L75.6302 111.548L75.1689 108.748L76.1773 108.136L76.467 100.83L69.998 101.013L69.3544 102.204L66.8118 103.115L62.2846 106.516L60.3214 104.982L57.3713 105.604L56.1375 105.379L57.5322 107.267L57.6824 109.08L55.2042 110.968L46.1176 112.148L41.2042 115.27L38.2433 110.689L40.5605 109.316L39.1981 105.926L37.4065 105.272L32.2464 106.774L26.6893 104.8L25.0372 103.609L22.4518 104.296L21.3683 99.94L19.7698 100.691L19.0832 100.101L18.0748 100.594L18.1177 99.35L17.3882 100.004L17.4418 98.6205L17.2058 97.3546L13.3008 95.0588L12.0028 99.2963L7.85105 99.7684L7.05719 98.0626L8.43037 91.5829L3.98898 87.281L5.16906 86.219L3.37748 83.8803L6.34914 81.2305L5.36216 80.4688L7.12155 75.3516L5.22269 71.4144L2.6158 71.2749L1.56445 67.6596L5.1905 68.0136L10.6618 65.2029L11.52 61.416L12.4426 56.0413L14.9959 53.9064L15.146 45.8819Z"
          fill="#55d4b7"
          fill-opacity="0.16"
          stroke="#F4F5F6

" stroke-width="1.3" stroke-linecap="round" stroke-linejoin="round"/>
</svg>
